<?xml version="1.0" encoding="utf-8"?>
<!-- Generator: Adobe Illustrator 21.0.0, SVG Export Plug-In . SVG Version: 6.00 Build 0)  -->
<svg version="1.1" id="Ebene_1" xmlns="http://www.w3.org/2000/svg" xmlns:xlink="http://www.w3.org/1999/xlink" x="0px" y="0px"
	 viewBox="0 0 585.3 54.2" style="enable-background:new 0 0 585.3 54.2;" xml:space="preserve">
<g>
	<path d="M109.1,43.9V27.7c0-3.4-1.3-6.2-5.2-6.2c-3.3,0-6.5,2.8-6.5,8.9v13.5h-3V27.7c0-3.4-1.3-6.2-5.2-6.2
		c-3.3,0-6.5,2.8-6.5,8.9v13.5h-3V25.3c0-1.9,0-3.8-0.2-5.7h2.9v4.1l0.1,0c1-1.7,2.4-4.7,7.6-4.7c2.2,0,5.7,0.9,6.5,5.2h0.1
		c1.1-2.9,4-5.2,7.8-5.2c4.9,0,7.7,3.4,7.7,8.2v16.8H109.1z"/>
	<path d="M133.5,40L133.5,40c-1.4,2.9-4.8,4.5-7.8,4.5c-6.9,0-8-4.7-8-6.9c0-8.2,8.7-8.6,15-8.6h0.6v-1.2c0-4.2-1.5-6.3-5.5-6.3
		c-2.5,0-4.9,0.6-7.2,2v-2.9c1.9-0.9,5-1.7,7.2-1.7c6,0,8.6,2.7,8.6,9.1v10.8c0,2,0,3.4,0.2,5.1h-3V40z M133.2,31.6h-0.9
		c-5.2,0-11.4,0.5-11.4,5.9c0,3.2,2.3,4.4,5.1,4.4c7.1,0,7.2-6.2,7.2-8.8V31.6z"/>
	<path d="M153.9,22.1h-5.5v15.8c0,2.2,0.8,4,3.2,4c1.1,0,1.9-0.2,2.8-0.6l0.2,2.5c-0.7,0.3-2.2,0.7-3.7,0.7c-5.4,0-5.5-3.7-5.5-8.1
		V22.1h-4.8v-2.6h4.8v-5.9l3-1.1v6.9h5.5V22.1z"/>
	<path d="M169.8,22.1h-5.5v15.8c0,2.2,0.8,4,3.2,4c1.1,0,1.9-0.2,2.8-0.6l0.2,2.5c-0.7,0.3-2.2,0.7-3.7,0.7c-5.3,0-5.5-3.7-5.5-8.1
		V22.1h-4.8v-2.6h4.8v-5.9l3-1.1v6.9h5.5V22.1z"/>
	<path d="M178.2,13h-3V9h3V13z M175.2,19.5h3v24.4h-3V19.5z"/>
	<path d="M199.1,25c0-2.7,0-3.7-0.2-5.4h3v4.7h0.1c1.1-2.7,3.2-5.3,6.3-5.3c0.7,0,1.6,0.1,2.1,0.3v3.2c-0.6-0.2-1.4-0.3-2.2-0.3
		c-4.8,0-6.1,5.4-6.1,9.7v12h-3V25z"/>
	<path d="M229,40L229,40c-1.4,2.9-4.8,4.5-7.8,4.5c-6.9,0-8-4.7-8-6.9c0-8.2,8.7-8.6,15-8.6h0.6v-1.2c0-4.2-1.5-6.3-5.5-6.3
		c-2.5,0-4.9,0.6-7.2,2v-2.9c1.9-0.9,5-1.7,7.2-1.7c6,0,8.6,2.7,8.6,9.1v10.8c0,2,0,3.4,0.2,5.1h-3V40z M228.7,31.6h-0.9
		c-5.2,0-11.4,0.5-11.4,5.9c0,3.2,2.3,4.4,5.1,4.4c7.1,0,7.2-6.2,7.2-8.8V31.6z"/>
	<path d="M258.2,41.9c0,6.8-3.1,12.3-11.4,12.3c-3.2,0-6.1-0.9-7.4-1.3l0.2-3c1.9,1,4.5,1.7,7.2,1.7c7.7,0,8.4-5.6,8.4-12.5h-0.1
		c-1.6,3.5-4.3,4.8-7.4,4.8c-7.8,0-10.3-6.8-10.3-12.2c0-7.4,2.9-12.8,10-12.8c3.2,0,5.4,0.4,7.6,3.3h0.1v-2.8h3V41.9z M247.8,41.3
		c5.4,0,7.4-5.2,7.4-9.6c0-5.9-1.7-10.2-7.2-10.2c-5.7,0-7.2,5.4-7.2,10.2C240.7,36.5,242.6,41.3,247.8,41.3z"/>
	<path d="M279.4,40L279.4,40c-1.4,2.9-4.8,4.5-7.8,4.5c-6.9,0-8-4.7-8-6.9c0-8.2,8.7-8.6,15-8.6h0.6v-1.2c0-4.2-1.5-6.3-5.5-6.3
		c-2.5,0-4.9,0.6-7.2,2v-2.9c1.9-0.9,5-1.7,7.2-1.7c6,0,8.6,2.7,8.6,9.1v10.8c0,2,0,3.4,0.2,5.1h-3V40z M279.2,31.6h-0.9
		c-5.2,0-11.4,0.5-11.4,5.9c0,3.2,2.3,4.4,5.1,4.4c7.1,0,7.2-6.2,7.2-8.8V31.6z"/>
	<path d="M287.1,41.4l14.7-19.3h-14.1v-2.6h17.6v2.6l-14.7,19.2h14.7v2.6h-18.2V41.4z"/>
	<path d="M323.8,8.1h3v15.6h0.1c1.3-2.7,4-4.7,7.6-4.7c6.5,0,8.3,4.3,8.3,10.4v14.6h-3V29.4c0-4.2-0.8-7.8-5.8-7.8
		c-5.4,0-7.2,5.1-7.2,9.3v13h-3V8.1z"/>
	<path d="M353.4,13h-3V9h3V13z M350.4,19.5h3v24.4h-3V19.5z"/>
	<path d="M371.5,22.1H366v15.8c0,2.2,0.8,4,3.2,4c1.1,0,1.9-0.2,2.8-0.6l0.2,2.5c-0.7,0.3-2.2,0.7-3.7,0.7c-5.4,0-5.5-3.7-5.5-8.1
		V22.1h-4.8v-2.6h4.8v-5.9l3-1.1v6.9h5.5V22.1z"/>
	<path d="M374.7,41.4l14.7-19.3h-14.1v-2.6h17.6v2.6l-14.7,19.2h14.7v2.6h-18.2V41.4z"/>
	<path d="M418.3,41.5L418.3,41.5c-0.9,1.7-2.9,2.7-4.7,2.7c-4.2,0-4.8-2.8-4.8-4.1c0-4.9,5.2-5.1,9-5.1h0.3v-0.7
		c0-2.5-0.9-3.8-3.3-3.8c-1.5,0-3,0.3-4.3,1.2v-1.7c1.1-0.5,3-1,4.3-1c3.6,0,5.1,1.6,5.1,5.4v6.4c0,1.2,0,2.1,0.1,3.1h-1.8V41.5z
		 M418.1,36.5h-0.5c-3.1,0-6.8,0.3-6.8,3.5c0,1.9,1.4,2.6,3,2.6c4.2,0,4.3-3.7,4.3-5.3V36.5z"/>
	<path d="M424.2,43.9h1.8v-7.2c0-2.6,0.8-5.8,3.6-5.8c0.5,0,0.9,0.1,1.3,0.2v-1.9c-0.3-0.1-0.8-0.2-1.3-0.2c-1.9,0-3.1,1.5-3.8,3.2
		h-0.1v-2.8h-1.8c0.1,1.1,0.1,1.7,0.1,3.3V43.9z"/>
	<path d="M443.3,31.2c-1-0.4-2.1-0.7-3.1-0.7c-3.5,0-5.5,2.6-5.5,6.1c0,3.3,2,6.1,5.3,6.1c1.1,0,2.2-0.3,3.3-0.7l0.2,1.7
		c-1.2,0.4-2.4,0.5-3.8,0.5c-4.7,0-7-3.6-7-7.7c0-4.5,2.9-7.7,7.2-7.7c1.7,0,3,0.4,3.5,0.6L443.3,31.2z"/>
	<path d="M446.5,22.4h1.8v9.3h0.1c0.8-1.6,2.4-2.8,4.6-2.8c3.9,0,5,2.6,5,6.2v8.7h-1.8v-8.7c0-2.5-0.5-4.7-3.5-4.7
		c-3.2,0-4.3,3-4.3,5.6v7.8h-1.8V22.4z"/>
	<path d="M464.2,23h-1.8v2.4h1.8V23z M462.4,43.9h1.8V29.3h-1.8V43.9z"/>
	<path d="M475.1,29.3h-3.3v-4.2l-1.8,0.6v3.5h-2.9v1.5h2.9v8.5c0,2.7,0.1,4.9,3.3,4.9c0.9,0,1.8-0.2,2.2-0.4l-0.1-1.5
		c-0.5,0.2-1,0.3-1.7,0.3c-1.5,0-1.9-1.1-1.9-2.4v-9.5h3.3V29.3z"/>
	<path d="M488.1,43.4c-1.3,0.5-2.9,0.8-4.2,0.8c-4.8,0-6.6-3.3-6.6-7.7c0-4.5,2.5-7.7,6.2-7.7c4.1,0,5.8,3.3,5.8,7.3v0.9h-10
		c0,3.1,1.7,5.6,4.8,5.6c1.3,0,3.2-0.5,4.1-1.1V43.4z M487.2,35.6c0-2.5-1-5.1-3.7-5.1c-2.7,0-4.3,2.7-4.3,5.1H487.2z"/>
	<path d="M492.7,22.4h1.8v12.9l6.5-6h2.3l-7.1,6.5l8,8.1h-2.5l-7.2-7.5v7.5h-1.8V22.4z"/>
	<path d="M513.3,29.3H510v-4.2l-1.8,0.6v3.5h-2.9v1.5h2.9v8.5c0,2.7,0.1,4.9,3.3,4.9c0.9,0,1.8-0.2,2.2-0.4l-0.1-1.5
		c-0.5,0.2-1,0.3-1.7,0.3c-1.5,0-2-1.1-2-2.4v-9.5h3.3V29.3z"/>
	<path d="M526.3,43.4c-1.3,0.5-2.9,0.8-4.2,0.8c-4.8,0-6.7-3.3-6.7-7.7c0-4.5,2.5-7.7,6.2-7.7c4.1,0,5.8,3.3,5.8,7.3v0.9h-10
		c0,3.1,1.7,5.6,4.8,5.6c1.3,0,3.2-0.5,4.1-1.1V43.4z M525.4,35.6c0-2.5-1-5.1-3.7-5.1c-2.7,0-4.3,2.7-4.3,5.1H525.4z"/>
	<path d="M530.9,32.7c0-1.1,0-2.3-0.1-3.4h1.7v2.6h0.1c0.6-1.3,1.7-3,4.7-3c3.6,0,5,2.4,5,5.6v9.3h-1.8V35c0-2.8-1-4.5-3.5-4.5
		c-3.3,0-4.3,2.9-4.3,5.3v8.1h-1.8V32.7z"/>
	<path d="M563.2,41.5L563.2,41.5c-0.9,1.7-2.9,2.7-4.7,2.7c-4.2,0-4.8-2.8-4.8-4.1c0-4.9,5.2-5.1,9-5.1h0.3v-0.7
		c0-2.5-0.9-3.8-3.3-3.8c-1.5,0-3,0.3-4.3,1.2v-1.7c1.1-0.5,3-1,4.3-1c3.6,0,5.1,1.6,5.1,5.4v6.4c0,1.2,0,2.1,0.1,3.1h-1.8V41.5z
		 M563,36.5h-0.5c-3.1,0-6.8,0.3-6.8,3.5c0,1.9,1.4,2.6,3,2.6c4.2,0,4.3-3.7,4.3-5.3V36.5z"/>
	<path d="M580.7,42.7c0,4.1-1.8,7.4-6.8,7.4c-1.9,0-3.7-0.5-4.4-0.8l0.1-1.8c1.1,0.6,2.7,1,4.3,1c4.6,0,5-3.4,5-7.5h-0.1
		c-1,2.1-2.6,2.9-4.4,2.9c-4.7,0-6.2-4.1-6.2-7.3c0-4.4,1.7-7.7,6-7.7c1.9,0,3.2,0.3,4.6,2h0.1v-1.7h1.8V42.7z M574.4,42.4
		c3.3,0,4.4-3.1,4.4-5.8c0-3.5-1-6.1-4.3-6.1c-3.4,0-4.3,3.3-4.3,6.1C570.2,39.5,571.4,42.4,574.4,42.4z"/>
</g>
<g>
	<g>
		<path d="M67.2,29.2c0,0,0-0.1,0-0.2l0,0c-0.8-2.2-3.1-3.3-4.6-3.6c-0.7-1.6-4.8-9.7-14.6-9.7c-1,0-1.8,0.1-2.5,0.3V7H8v37.3h37.3
			v-6.2c0.9,0.3,2.4,0.8,4.7,0.8c3.6,0,6.2-1.6,8.2-3.3c0.5,0,1.8,0.1,2.8,0.1c1.6,0,6.4-1.3,6.4-5.3C67.4,30,67.3,29.6,67.2,29.2z
			 M44.3,43.2H9.1V8h35.2v8.2c-2.6,0.8-3.8,2.2-4.3,2.8c-1.1,0.1-5.4,0.5-8.5,2.2c-3.1,1.7-4.7,3.8-5.1,4.4
			c-0.9,0.2-4.4,1.2-5.8,3.9l-0.1,0l-0.1,0.2c0,0.1-0.1,0.2-0.1,0.3c0,0.1-0.1,0.2-0.1,0.4C20.1,31,20,31.5,20,32
			c0,4.1,4.1,5.4,6.2,5.4c0.1,0,2.6,0.3,4.8-0.9c0.7,1.3,2.7,4.4,7.4,4.4c3.2,0,4.9-0.9,5.9-1.8V43.2z M61.9,30c-3.6,0-6-1.3-6-1.3
			l-0.4-0.2l-0.3,0.3c-1.5,1.9-3.6,2.9-5.9,2.9c-1.9,0-3.5-0.5-4-0.7c-0.1,0-0.2-0.1-0.2-0.1l-0.7-0.3l0,0.8c0,0,0,0.1-0.1,0.3
			c-0.3,0.6-1.7,1.7-6.7,1.7c-6.9,0-8.2-2.1-8.2-2.1L29.2,31l-0.4,0.1c-4.9,1-6.7-0.5-7.2-1.1c1.4-2.5,5.1-3.3,5.2-3.3l0.2,0
			l0.1-0.2c0,0,1.5-2.4,4.8-4.3c3.4-1.8,8.3-2.1,8.3-2.1l0.3,0l0.1-0.3c0.1-0.1,1-1.6,3.5-2.5c0.3-0.1,0.7-0.2,1.1-0.3
			c0.7-0.2,1.6-0.3,2.5-0.3c10.1,0,13.6,8.9,13.7,9.2l0.1,0.3l0.3,0.1c0,0,2.9,0.6,3.9,2.7C65.5,29.4,64.3,30,61.9,30z"/>
	</g>
</g>
</svg>
